{
  "posts": [
    {
      "id": 1,
      "title": "post 1",
      "author": "brandon",
      "votes": 0
    },
    {
      "id": 2,
      "title": "post 2",
      "author": "brandon",
      "votes": 10
    },
    {
      "id": 3,
      "title": "guest post",
      "author": "guest",
      "votes": 5
    }
  ],
  "comments": [
    {
      "id": 1,
      "body": "some comment",
      "postId": 1
    },
    {
      "id": 2,
      "body": "another comment",
      "postId": 1
    },
    {
      "id": 3,
      "body": "a comment on guest post",
      "postId": 3
    }
  ]
}